282 340 0 0 0
41	0 44.0 0
42	0 0 0
43	0 39.6 0
44	0 35.2 0
45	0 30.8 0
46	0 26.4 0
47	0 22.0 0
48	0 17.6 0
49	0 13.2 0
50	0 8.8 0
51	0 4.4 0
52	48.0 44.0 -2.93915231795e-15
53	4.8 4.4 0
54	9.6 8.8 0
55	14.4 13.2 0
56	19.2 17.6 -1.17566092718e-15
57	24.0 22.0 -1.46957615898e-15
58	28.8 26.4 -1.76349139077e-15
59	33.6 30.8 -2.05740662257e-15
60	38.4 35.2 -2.35132185436e-15
61	43.2 39.6 -2.64523708616e-15
62	48.0 60.0 -2.93915231795e-15
63	43.2 58.4 -2.64523708616e-15
64	38.4 56.8 -2.35132185436e-15
65	33.6 55.2 -2.05740662257e-15
66	28.8 53.6 -1.76349139077e-15
67	24.0 52.0 -1.46957615898e-15
68	19.2 50.4 -1.17566092718e-15
69	14.4 48.8 0
70	9.6 47.2 0
71	4.8 45.6 0
72	48.0 45.6 -2.93915231795e-15
73	48.0 47.2 -2.93915231795e-15
74	48.0 48.8 -2.93915231795e-15
75	48.0 50.4 -2.93915231795e-15
76	48.0 52.0 -2.93915231795e-15
77	48.0 53.6 -2.93915231795e-15
78	48.0 55.2 -2.93915231795e-15
79	48.0 56.8 -2.93915231795e-15
80	48.0 58.4 -2.93915231795e-15
81	0 44.0 -4.0
82	0 0 -4.0
83	0 39.6 -4.0
84	0 35.2 -4.0
85	0 30.8 -4.0
86	0 26.4 -4.0
87	0 22.0 -4.0
88	0 17.6 -4.0
89	0 13.2 -4.0
90	0 8.8 -4.0
91	0 4.4 -4.0
92	48.0 60.0 -4.0
93	43.2 58.4 -4.0
94	38.4 56.8 -4.0
95	33.6 55.2 -4.0
96	28.8 53.6 -4.0
97	24.0 52.0 -4.0
98	19.2 50.4 -4.0
99	14.4 48.8 -4.0
100	9.6 47.2 -4.0
101	4.8 45.6 -4.0
102	48.0 44.0 -4.0
103	48.0 45.6 -4.0
104	48.0 47.2 -4.0
105	48.0 48.8 -4.0
106	48.0 50.4 -4.0
107	48.0 52.0 -4.0
108	48.0 53.6 -4.0
109	48.0 55.2 -4.0
110	48.0 56.8 -4.0
111	48.0 58.4 -4.0
112	4.8 4.4 -4.0
113	9.6 8.8 -4.0
114	14.4 13.2 -4.0
115	19.2 17.6 -4.0
116	24.0 22.0 -4.0
117	28.8 26.4 -4.0
118	33.6 30.8 -4.0
119	38.4 35.2 -4.0
120	43.2 39.6 -4.0
121	0 44.0 0
122	0 0 0
123	48.0 60.0 -2.93915231795e-15
124	48.0 44.0 -2.93915231795e-15
125	43.2 41.48 -4.0
126	38.4 37.36 -4.0
127	33.6 33.24 -4.0
128	28.8 29.12 -4.0
129	24.0 25.0 -4.0
130	19.2 20.88 -4.0
131	14.4 16.76 -4.0
132	9.6 12.64 -4.0
133	4.8 8.52 -4.0
134	43.2 43.36 -4.0
135	38.4 39.52 -4.0
136	33.6 35.68 -4.0
137	28.8 31.84 -4.0
138	24.0 28.0 -4.0
139	19.2 24.16 -4.0
140	14.4 20.32 -4.0
141	9.6 16.48 -4.0
142	4.8 12.64 -4.0
143	43.2 45.24 -4.0
144	38.4 41.68 -4.0
145	33.6 38.12 -4.0
146	28.8 34.56 -4.0
147	24.0 31.0 -4.0
148	19.2 27.44 -4.0
149	14.4 23.88 -4.0
150	9.6 20.32 -4.0
151	4.8 16.76 -4.0
152	43.2 47.12 -4.0
153	38.4 43.84 -4.0
154	33.6 40.56 -4.0
155	28.8 37.28 -4.0
156	24.0 34.0 -4.0
157	19.2 30.72 -4.0
158	14.4 27.44 -4.0
159	9.6 24.16 -4.0
160	4.8 20.88 -4.0
161	43.2 49.0 -4.0
162	38.4 46.0 -4.0
163	33.6 43.0 -4.0
164	28.8 40.0 -4.0
165	24.0 37.0 -4.0
166	19.2 34.0 -4.0
167	14.4 31.0 -4.0
168	9.6 28.0 -4.0
169	4.8 25.0 -4.0
170	43.2 50.88 -4.0
171	38.4 48.16 -4.0
172	33.6 45.44 -4.0
173	28.8 42.72 -4.0
174	24.0 40.0 -4.0
175	19.2 37.28 -4.0
176	14.4 34.56 -4.0
177	9.6 31.84 -4.0
178	4.8 29.12 -4.0
179	43.2 52.76 -4.0
180	38.4 50.32 -4.0
181	33.6 47.88 -4.0
182	28.8 45.44 -4.0
183	24.0 43.0 -4.0
184	19.2 40.56 -4.0
185	14.4 38.12 -4.0
186	9.6 35.68 -4.0
187	4.8 33.24 -4.0
188	43.2 54.64 -4.0
189	38.4 52.48 -4.0
190	33.6 50.32 -4.0
191	28.8 48.16 -4.0
192	24.0 46.0 -4.0
193	19.2 43.84 -4.0
194	14.4 41.68 -4.0
195	9.6 39.52 -4.0
196	4.8 37.36 -4.0
197	43.2 56.52 -4.0
198	38.4 54.64 -4.0
199	33.6 52.76 -4.0
200	28.8 50.88 -4.0
201	24.0 49.0 -4.0
202	19.2 47.12 -4.0
203	14.4 45.24 -4.0
204	9.6 43.36 -4.0
205	4.8 41.48 -4.0
206	4.8 4.4 0
207	9.6 8.8 0
208	14.4 13.2 0
209	19.2 17.6 -1.17566092718e-15
210	24.0 22.0 -1.46957615898e-15
211	28.8 26.4 -1.76349139077e-15
212	33.6 30.8 -2.05740662257e-15
213	38.4 35.2 -2.35132185436e-15
214	43.2 39.6 -2.64523708616e-15
215	48.0 45.6 -2.93915231795e-15
216	48.0 47.2 -2.93915231795e-15
217	48.0 48.8 -2.93915231795e-15
218	48.0 50.4 -2.93915231795e-15
219	48.0 52.0 -2.93915231795e-15
220	48.0 53.6 -2.93915231795e-15
221	48.0 55.2 -2.93915231795e-15
222	48.0 56.8 -2.93915231795e-15
223	48.0 58.4 -2.93915231795e-15
224	43.2 58.4 -2.64523708616e-15
225	38.4 56.8 -2.35132185436e-15
226	33.6 55.2 -2.05740662257e-15
227	28.8 53.6 -1.76349139077e-15
228	24.0 52.0 -1.46957615898e-15
229	19.2 50.4 -1.17566092718e-15
230	14.4 48.8 0
231	9.6 47.2 0
232	4.8 45.6 0
233	0 39.6 0
234	0 35.2 0
235	0 30.8 0
236	0 26.4 0
237	0 22.0 0
238	0 17.6 0
239	0 13.2 0
240	0 8.8 0
241	0 4.4 0
242	4.8 8.52 0
243	9.6 12.64 0
244	14.4 16.76 0
245	19.2 20.88 -1.17566092718e-15
246	24.0 25.0 -1.46957615898e-15
247	28.8 29.12 -1.76349139077e-15
248	33.6 33.24 -2.05740662257e-15
249	38.4 37.36 -2.35132185436e-15
250	43.2 41.48 -2.64523708616e-15
251	4.8 12.64 0
252	9.6 16.48 0
253	14.4 20.32 0
254	19.2 24.16 -1.17566092718e-15
255	24.0 28.0 -1.46957615898e-15
256	28.8 31.84 -1.76349139077e-15
257	33.6 35.68 -2.05740662257e-15
258	38.4 39.52 -2.35132185436e-15
259	43.2 43.36 -2.64523708616e-15
260	4.8 16.76 0
261	9.6 20.32 0
262	14.4 23.88 0
263	19.2 27.44 -1.17566092718e-15
264	24.0 31.0 -1.46957615898e-15
265	28.8 34.56 -1.76349139077e-15
266	33.6 38.12 -2.05740662257e-15
267	38.4 41.68 -2.35132185436e-15
268	43.2 45.24 -2.64523708616e-15
269	4.8 20.88 0
270	9.6 24.16 0
271	14.4 27.44 0
272	19.2 30.72 -1.17566092718e-15
273	24.0 34.0 -1.46957615898e-15
274	28.8 37.28 -1.76349139077e-15
275	33.6 40.56 -2.05740662257e-15
276	38.4 43.84 -2.35132185436e-15
277	43.2 47.12 -2.64523708616e-15
278	4.8 25.0 0
279	9.6 28.0 0
280	14.4 31.0 0
281	19.2 34.0 -1.17566092718e-15
282	24.0 37.0 -1.46957615898e-15
283	28.8 40.0 -1.76349139077e-15
284	33.6 43.0 -2.05740662257e-15
285	38.4 46.0 -2.35132185436e-15
286	43.2 49.0 -2.64523708616e-15
287	4.8 29.12 0
288	9.6 31.84 0
289	14.4 34.56 0
290	19.2 37.28 -1.17566092718e-15
291	24.0 40.0 -1.46957615898e-15
292	28.8 42.72 -1.76349139077e-15
293	33.6 45.44 -2.05740662257e-15
294	38.4 48.16 -2.35132185436e-15
295	43.2 50.88 -2.64523708616e-15
296	4.8 33.24 0
297	9.6 35.68 0
298	14.4 38.12 0
299	19.2 40.56 -1.17566092718e-15
300	24.0 43.0 -1.46957615898e-15
301	28.8 45.44 -1.76349139077e-15
302	33.6 47.88 -2.05740662257e-15
303	38.4 50.32 -2.35132185436e-15
304	43.2 52.76 -2.64523708616e-15
305	4.8 37.36 0
306	9.6 39.52 0
307	14.4 41.68 0
308	19.2 43.84 -1.17566092718e-15
309	24.0 46.0 -1.46957615898e-15
310	28.8 48.16 -1.76349139077e-15
311	33.6 50.32 -2.05740662257e-15
312	38.4 52.48 -2.35132185436e-15
313	43.2 54.64 -2.64523708616e-15
314	4.8 41.48 0
315	9.6 43.36 0
316	14.4 45.24 0
317	19.2 47.12 -1.17566092718e-15
318	24.0 49.0 -1.46957615898e-15
319	28.8 50.88 -1.76349139077e-15
320	33.6 52.76 -2.05740662257e-15
321	38.4 54.64 -2.35132185436e-15
322	43.2 56.52 -2.64523708616e-15
1 0  hex  102 103 215 124 120 125 250 214 
2 0  hex  103 104 216 215 125 134 259 250 
3 0  hex  104 105 217 216 134 143 268 259 
4 0  hex  105 106 218 217 143 152 277 268 
5 0  hex  106 107 219 218 152 161 286 277 
6 0  hex  107 108 220 219 161 170 295 286 
7 0  hex  108 109 221 220 170 179 304 295 
8 0  hex  109 110 222 221 179 188 313 304 
9 0  hex  110 111 223 222 188 197 322 313 
10 0  hex  111 92 123 223 197 93 224 322 
11 0  hex  120 125 250 214 119 126 249 213 
12 0  hex  125 134 259 250 126 135 258 249 
13 0  hex  134 143 268 259 135 144 267 258 
14 0  hex  143 152 277 268 144 153 276 267 
15 0  hex  152 161 286 277 153 162 285 276 
16 0  hex  161 170 295 286 162 171 294 285 
17 0  hex  170 179 304 295 171 180 303 294 
18 0  hex  179 188 313 304 180 189 312 303 
19 0  hex  188 197 322 313 189 198 321 312 
20 0  hex  197 93 224 322 198 94 225 321 
21 0  hex  119 126 249 213 118 127 248 212 
22 0  hex  126 135 258 249 127 136 257 248 
23 0  hex  135 144 267 258 136 145 266 257 
24 0  hex  144 153 276 267 145 154 275 266 
25 0  hex  153 162 285 276 154 163 284 275 
26 0  hex  162 171 294 285 163 172 293 284 
27 0  hex  171 180 303 294 172 181 302 293 
28 0  hex  180 189 312 303 181 190 311 302 
29 0  hex  189 198 321 312 190 199 320 311 
30 0  hex  198 94 225 321 199 95 226 320 
31 0  hex  118 127 248 212 117 128 247 211 
32 0  hex  127 136 257 248 128 137 256 247 
33 0  hex  136 145 266 257 137 146 265 256 
34 0  hex  145 154 275 266 146 155 274 265 
35 0  hex  154 163 284 275 155 164 283 274 
36 0  hex  163 172 293 284 164 173 292 283 
37 0  hex  172 181 302 293 173 182 301 292 
38 0  hex  181 190 311 302 182 191 310 301 
39 0  hex  190 199 320 311 191 200 319 310 
40 0  hex  199 95 226 320 200 96 227 319 
41 0  hex  117 128 247 211 116 129 246 210 
42 0  hex  128 137 256 247 129 138 255 246 
43 0  hex  137 146 265 256 138 147 264 255 
44 0  hex  146 155 274 265 147 156 273 264 
45 0  hex  155 164 283 274 156 165 282 273 
46 0  hex  164 173 292 283 165 174 291 282 
47 0  hex  173 182 301 292 174 183 300 291 
48 0  hex  182 191 310 301 183 192 309 300 
49 0  hex  191 200 319 310 192 201 318 309 
50 0  hex  200 96 227 319 201 97 228 318 
51 0  hex  116 129 246 210 115 130 245 209 
52 0  hex  129 138 255 246 130 139 254 245 
53 0  hex  138 147 264 255 139 148 263 254 
54 0  hex  147 156 273 264 148 157 272 263 
55 0  hex  156 165 282 273 157 166 281 272 
56 0  hex  165 174 291 282 166 175 290 281 
57 0  hex  174 183 300 291 175 184 299 290 
58 0  hex  183 192 309 300 184 193 308 299 
59 0  hex  192 201 318 309 193 202 317 308 
60 0  hex  201 97 228 318 202 98 229 317 
61 0  hex  115 130 245 209 114 131 244 208 
62 0  hex  130 139 254 245 131 140 253 244 
63 0  hex  139 148 263 254 140 149 262 253 
64 0  hex  148 157 272 263 149 158 271 262 
65 0  hex  157 166 281 272 158 167 280 271 
66 0  hex  166 175 290 281 167 176 289 280 
67 0  hex  175 184 299 290 176 185 298 289 
68 0  hex  184 193 308 299 185 194 307 298 
69 0  hex  193 202 317 308 194 203 316 307 
70 0  hex  202 98 229 317 203 99 230 316 
71 0  hex  114 131 244 208 113 132 243 207 
72 0  hex  131 140 253 244 132 141 252 243 
73 0  hex  140 149 262 253 141 150 261 252 
74 0  hex  149 158 271 262 150 159 270 261 
75 0  hex  158 167 280 271 159 168 279 270 
76 0  hex  167 176 289 280 168 177 288 279 
77 0  hex  176 185 298 289 177 186 297 288 
78 0  hex  185 194 307 298 186 195 306 297 
79 0  hex  194 203 316 307 195 204 315 306 
80 0  hex  203 99 230 316 204 100 231 315 
81 0  hex  113 132 243 207 112 133 242 206 
82 0  hex  132 141 252 243 133 142 251 242 
83 0  hex  141 150 261 252 142 151 260 251 
84 0  hex  150 159 270 261 151 160 269 260 
85 0  hex  159 168 279 270 160 169 278 269 
86 0  hex  168 177 288 279 169 178 287 278 
87 0  hex  177 186 297 288 178 187 296 287 
88 0  hex  186 195 306 297 187 196 305 296 
89 0  hex  195 204 315 306 196 205 314 305 
90 0  hex  204 100 231 315 205 101 232 314 
91 0  hex  112 133 242 206 82 91 241 122 
92 0  hex  133 142 251 242 91 90 240 241 
93 0  hex  142 151 260 251 90 89 239 240 
94 0  hex  151 160 269 260 89 88 238 239 
95 0  hex  160 169 278 269 88 87 237 238 
96 0  hex  169 178 287 278 87 86 236 237 
97 0  hex  178 187 296 287 86 85 235 236 
98 0  hex  187 196 305 296 85 84 234 235 
99 0  hex  196 205 314 305 84 83 233 234 
100 0  hex  205 101 232 314 83 81 121 233 
1 1 quad 241 91 82 122
2 1 quad 240 90 91 241
3 1 quad 239 89 90 240
4 1 quad 238 88 89 239
5 1 quad 237 87 88 238
6 1 quad 236 86 87 237
7 1 quad 235 85 86 236
8 1 quad 234 84 85 235
9 1 quad 233 83 84 234
10 1 quad 121 81 83 233
11 2 quad 223 111 92 123
12 2 quad 222 110 111 223
13 2 quad 221 109 110 222
14 2 quad 220 108 109 221
15 2 quad 219 107 108 220
16 2 quad 218 106 107 219
17 2 quad 217 105 106 218
18 2 quad 216 104 105 217
19 2 quad 215 103 104 216
20 2 quad 124 102 103 215
21 3 quad 214 120 102 124
22 3 quad 213 119 120 214
23 3 quad 212 118 119 213
24 3 quad 211 117 118 212
25 3 quad 210 116 117 211
26 3 quad 209 115 116 210
27 3 quad 208 114 115 209
28 3 quad 207 113 114 208
29 3 quad 206 112 113 207
30 3 quad 122 82 112 206
31 4 quad 232 101 81 121
32 4 quad 231 100 101 232
33 4 quad 230 99 100 231
34 4 quad 229 98 99 230
35 4 quad 228 97 98 229
36 4 quad 227 96 97 228
37 4 quad 226 95 96 227
38 4 quad 225 94 95 226
39 4 quad 224 93 94 225
40 4 quad 123 92 93 224
41 5 quad 120 125 103 102
42 5 quad 119 126 125 120
43 5 quad 118 127 126 119
44 5 quad 117 128 127 118
45 5 quad 116 129 128 117
46 5 quad 115 130 129 116
47 5 quad 114 131 130 115
48 5 quad 113 132 131 114
49 5 quad 112 133 132 113
50 5 quad 82 91 133 112
51 5 quad 125 134 104 103
52 5 quad 126 135 134 125
53 5 quad 127 136 135 126
54 5 quad 128 137 136 127
55 5 quad 129 138 137 128
56 5 quad 130 139 138 129
57 5 quad 131 140 139 130
58 5 quad 132 141 140 131
59 5 quad 133 142 141 132
60 5 quad 91 90 142 133
61 5 quad 134 143 105 104
62 5 quad 135 144 143 134
63 5 quad 136 145 144 135
64 5 quad 137 146 145 136
65 5 quad 138 147 146 137
66 5 quad 139 148 147 138
67 5 quad 140 149 148 139
68 5 quad 141 150 149 140
69 5 quad 142 151 150 141
70 5 quad 90 89 151 142
71 5 quad 143 152 106 105
72 5 quad 144 153 152 143
73 5 quad 145 154 153 144
74 5 quad 146 155 154 145
75 5 quad 147 156 155 146
76 5 quad 148 157 156 147
77 5 quad 149 158 157 148
78 5 quad 150 159 158 149
79 5 quad 151 160 159 150
80 5 quad 89 88 160 151
81 5 quad 152 161 107 106
82 5 quad 153 162 161 152
83 5 quad 154 163 162 153
84 5 quad 155 164 163 154
85 5 quad 156 165 164 155
86 5 quad 157 166 165 156
87 5 quad 158 167 166 157
88 5 quad 159 168 167 158
89 5 quad 160 169 168 159
90 5 quad 88 87 169 160
91 5 quad 161 170 108 107
92 5 quad 162 171 170 161
93 5 quad 163 172 171 162
94 5 quad 164 173 172 163
95 5 quad 165 174 173 164
96 5 quad 166 175 174 165
97 5 quad 167 176 175 166
98 5 quad 168 177 176 167
99 5 quad 169 178 177 168
100 5 quad 87 86 178 169
101 5 quad 170 179 109 108
102 5 quad 171 180 179 170
103 5 quad 172 181 180 171
104 5 quad 173 182 181 172
105 5 quad 174 183 182 173
106 5 quad 175 184 183 174
107 5 quad 176 185 184 175
108 5 quad 177 186 185 176
109 5 quad 178 187 186 177
110 5 quad 86 85 187 178
111 5 quad 179 188 110 109
112 5 quad 180 189 188 179
113 5 quad 181 190 189 180
114 5 quad 182 191 190 181
115 5 quad 183 192 191 182
116 5 quad 184 193 192 183
117 5 quad 185 194 193 184
118 5 quad 186 195 194 185
119 5 quad 187 196 195 186
120 5 quad 85 84 196 187
121 5 quad 188 197 111 110
122 5 quad 189 198 197 188
123 5 quad 190 199 198 189
124 5 quad 191 200 199 190
125 5 quad 192 201 200 191
126 5 quad 193 202 201 192
127 5 quad 194 203 202 193
128 5 quad 195 204 203 194
129 5 quad 196 205 204 195
130 5 quad 84 83 205 196
131 5 quad 197 93 92 111
132 5 quad 198 94 93 197
133 5 quad 199 95 94 198
134 5 quad 200 96 95 199
135 5 quad 201 97 96 200
136 5 quad 202 98 97 201
137 5 quad 203 99 98 202
138 5 quad 204 100 99 203
139 5 quad 205 101 100 204
140 5 quad 83 81 101 205
141 6 quad 206 242 241 122
142 6 quad 207 243 242 206
143 6 quad 208 244 243 207
144 6 quad 209 245 244 208
145 6 quad 210 246 245 209
146 6 quad 211 247 246 210
147 6 quad 212 248 247 211
148 6 quad 213 249 248 212
149 6 quad 214 250 249 213
150 6 quad 124 215 250 214
151 6 quad 242 251 240 241
152 6 quad 243 252 251 242
153 6 quad 244 253 252 243
154 6 quad 245 254 253 244
155 6 quad 246 255 254 245
156 6 quad 247 256 255 246
157 6 quad 248 257 256 247
158 6 quad 249 258 257 248
159 6 quad 250 259 258 249
160 6 quad 215 216 259 250
161 6 quad 251 260 239 240
162 6 quad 252 261 260 251
163 6 quad 253 262 261 252
164 6 quad 254 263 262 253
165 6 quad 255 264 263 254
166 6 quad 256 265 264 255
167 6 quad 257 266 265 256
168 6 quad 258 267 266 257
169 6 quad 259 268 267 258
170 6 quad 216 217 268 259
171 6 quad 260 269 238 239
172 6 quad 261 270 269 260
173 6 quad 262 271 270 261
174 6 quad 263 272 271 262
175 6 quad 264 273 272 263
176 6 quad 265 274 273 264
177 6 quad 266 275 274 265
178 6 quad 267 276 275 266
179 6 quad 268 277 276 267
180 6 quad 217 218 277 268
181 6 quad 269 278 237 238
182 6 quad 270 279 278 269
183 6 quad 271 280 279 270
184 6 quad 272 281 280 271
185 6 quad 273 282 281 272
186 6 quad 274 283 282 273
187 6 quad 275 284 283 274
188 6 quad 276 285 284 275
189 6 quad 277 286 285 276
190 6 quad 218 219 286 277
191 6 quad 278 287 236 237
192 6 quad 279 288 287 278
193 6 quad 280 289 288 279
194 6 quad 281 290 289 280
195 6 quad 282 291 290 281
196 6 quad 283 292 291 282
197 6 quad 284 293 292 283
198 6 quad 285 294 293 284
199 6 quad 286 295 294 285
200 6 quad 219 220 295 286
201 6 quad 287 296 235 236
202 6 quad 288 297 296 287
203 6 quad 289 298 297 288
204 6 quad 290 299 298 289
205 6 quad 291 300 299 290
206 6 quad 292 301 300 291
207 6 quad 293 302 301 292
208 6 quad 294 303 302 293
209 6 quad 295 304 303 294
210 6 quad 220 221 304 295
211 6 quad 296 305 234 235
212 6 quad 297 306 305 296
213 6 quad 298 307 306 297
214 6 quad 299 308 307 298
215 6 quad 300 309 308 299
216 6 quad 301 310 309 300
217 6 quad 302 311 310 301
218 6 quad 303 312 311 302
219 6 quad 304 313 312 303
220 6 quad 221 222 313 304
221 6 quad 305 314 233 234
222 6 quad 306 315 314 305
223 6 quad 307 316 315 306
224 6 quad 308 317 316 307
225 6 quad 309 318 317 308
226 6 quad 310 319 318 309
227 6 quad 311 320 319 310
228 6 quad 312 321 320 311
229 6 quad 313 322 321 312
230 6 quad 222 223 322 313
231 6 quad 314 232 121 233
232 6 quad 315 231 232 314
233 6 quad 316 230 231 315
234 6 quad 317 229 230 316
235 6 quad 318 228 229 317
236 6 quad 319 227 228 318
237 6 quad 320 226 227 319
238 6 quad 321 225 226 320
239 6 quad 322 224 225 321
240 6 quad 223 123 224 322
