121 160 0 0 0
31	0.809016994375 -0.587785252292 2.5
32	0.809016994375 0.587785252292 2.5
33	0.809016994375 0 2.5
34	-0.309016994375 0.951056516295 2.5
35	0.25 0.769420884294 2.5
36	-1.0 0 2.5
37	-0.654508497187 0.475528258148 2.5
38	-0.309016994375 -0.951056516295 2.5
39	-0.654508497187 -0.475528258148 2.5
40	0.25 -0.769420884294 2.5
41	0 0 2.5
42	-0.309016994375 -0.951056516295 -2.5
43	-0.309016994375 -0.951056516295 2.0
44	-0.309016994375 -0.951056516295 1.5
45	-0.309016994375 -0.951056516295 1.0
46	-0.309016994375 -0.951056516295 0.5
47	-0.309016994375 -0.951056516295 0
48	-0.309016994375 -0.951056516295 -0.5
49	-0.309016994375 -0.951056516295 -1.0
50	-0.309016994375 -0.951056516295 -1.5
51	-0.309016994375 -0.951056516295 -2.0
52	0.809016994375 -0.587785252292 -2.5
53	0.25 -0.769420884294 -2.5
54	0.809016994375 -0.587785252292 2.0
55	0.809016994375 -0.587785252292 1.5
56	0.809016994375 -0.587785252292 1.0
57	0.809016994375 -0.587785252292 0.5
58	0.809016994375 -0.587785252292 0
59	0.809016994375 -0.587785252292 -0.5
60	0.809016994375 -0.587785252292 -1.0
61	0.809016994375 -0.587785252292 -1.5
62	0.809016994375 -0.587785252292 -2.0
63	0.25 -0.769420884294 2.0
64	0.25 -0.769420884294 1.5
65	0.25 -0.769420884294 1.0
66	0.25 -0.769420884294 0.5
67	0.25 -0.769420884294 0
68	0.25 -0.769420884294 -0.5
69	0.25 -0.769420884294 -1.0
70	0.25 -0.769420884294 -1.5
71	0.25 -0.769420884294 -2.0
72	-1.0 0 -2.5
73	-1.0 0 2.0
74	-1.0 0 1.5
75	-1.0 0 1.0
76	-1.0 0 0.5
77	-1.0 0 0
78	-1.0 0 -0.5
79	-1.0 0 -1.0
80	-1.0 0 -1.5
81	-1.0 0 -2.0
82	-0.654508497187 -0.475528258148 -2.5
83	-0.654508497187 -0.475528258148 2.0
84	-0.654508497187 -0.475528258148 1.5
85	-0.654508497187 -0.475528258148 1.0
86	-0.654508497187 -0.475528258148 0.5
87	-0.654508497187 -0.475528258148 0
88	-0.654508497187 -0.475528258148 -0.5
89	-0.654508497187 -0.475528258148 -1.0
90	-0.654508497187 -0.475528258148 -1.5
91	-0.654508497187 -0.475528258148 -2.0
92	-0.309016994375 0.951056516295 -2.5
93	-0.309016994375 0.951056516295 2.0
94	-0.309016994375 0.951056516295 1.5
95	-0.309016994375 0.951056516295 1.0
96	-0.309016994375 0.951056516295 0.5
97	-0.309016994375 0.951056516295 0
98	-0.309016994375 0.951056516295 -0.5
99	-0.309016994375 0.951056516295 -1.0
100	-0.309016994375 0.951056516295 -1.5
101	-0.309016994375 0.951056516295 -2.0
102	-0.654508497187 0.475528258148 -2.5
103	-0.654508497187 0.475528258148 2.0
104	-0.654508497187 0.475528258148 1.5
105	-0.654508497187 0.475528258148 1.0
106	-0.654508497187 0.475528258148 0.5
107	-0.654508497187 0.475528258148 0
108	-0.654508497187 0.475528258148 -0.5
109	-0.654508497187 0.475528258148 -1.0
110	-0.654508497187 0.475528258148 -1.5
111	-0.654508497187 0.475528258148 -2.0
112	0.809016994375 0.587785252292 -2.5
113	0.809016994375 0.587785252292 2.0
114	0.809016994375 0.587785252292 1.5
115	0.809016994375 0.587785252292 1.0
116	0.809016994375 0.587785252292 0.5
117	0.809016994375 0.587785252292 0
118	0.809016994375 0.587785252292 -0.5
119	0.809016994375 0.587785252292 -1.0
120	0.809016994375 0.587785252292 -1.5
121	0.809016994375 0.587785252292 -2.0
122	0.25 0.769420884294 -2.5
123	0.25 0.769420884294 2.0
124	0.25 0.769420884294 1.5
125	0.25 0.769420884294 1.0
126	0.25 0.769420884294 0.5
127	0.25 0.769420884294 0
128	0.25 0.769420884294 -0.5
129	0.25 0.769420884294 -1.0
130	0.25 0.769420884294 -1.5
131	0.25 0.769420884294 -2.0
132	0.809016994375 0 -2.5
133	0.809016994375 0 2.0
134	0.809016994375 0 1.5
135	0.809016994375 0 1.0
136	0.809016994375 0 0.5
137	0.809016994375 0 0
138	0.809016994375 0 -0.5
139	0.809016994375 0 -1.0
140	0.809016994375 0 -1.5
141	0.809016994375 0 -2.0
142	0 0 0
143	0 0 0.5
144	0 0 1.0
145	0 0 1.5
146	0 0 2.0
147	0 0 -0.5
148	0 0 -1.0
149	0 0 -1.5
150	0 0 -2.0
151	0 0 -2.5
1 0  hex  73 103 146 83 36 37 41 39 
2 0  hex  83 146 63 43 39 41 40 38 
3 0  hex  54 63 146 133 31 40 41 33 
4 0  hex  123 146 103 93 35 41 37 34 
5 0  hex  146 123 113 133 41 35 32 33 
6 0  hex  74 104 145 84 73 103 146 83 
7 0  hex  84 145 64 44 83 146 63 43 
8 0  hex  55 64 145 134 54 63 146 133 
9 0  hex  124 145 104 94 123 146 103 93 
10 0  hex  145 124 114 134 146 123 113 133 
11 0  hex  75 105 144 85 74 104 145 84 
12 0  hex  85 144 65 45 84 145 64 44 
13 0  hex  56 65 144 135 55 64 145 134 
14 0  hex  125 144 105 95 124 145 104 94 
15 0  hex  144 125 115 135 145 124 114 134 
16 0  hex  76 106 143 86 75 105 144 85 
17 0  hex  86 143 66 46 85 144 65 45 
18 0  hex  57 66 143 136 56 65 144 135 
19 0  hex  126 143 106 96 125 144 105 95 
20 0  hex  143 126 116 136 144 125 115 135 
21 0  hex  77 107 142 87 76 106 143 86 
22 0  hex  87 142 67 47 86 143 66 46 
23 0  hex  58 67 142 137 57 66 143 136 
24 0  hex  127 142 107 97 126 143 106 96 
25 0  hex  142 127 117 137 143 126 116 136 
26 0  hex  78 108 147 88 77 107 142 87 
27 0  hex  88 147 68 48 87 142 67 47 
28 0  hex  59 68 147 138 58 67 142 137 
29 0  hex  128 147 108 98 127 142 107 97 
30 0  hex  147 128 118 138 142 127 117 137 
31 0  hex  79 109 148 89 78 108 147 88 
32 0  hex  89 148 69 49 88 147 68 48 
33 0  hex  60 69 148 139 59 68 147 138 
34 0  hex  129 148 109 99 128 147 108 98 
35 0  hex  148 129 119 139 147 128 118 138 
36 0  hex  80 110 149 90 79 109 148 89 
37 0  hex  90 149 70 50 89 148 69 49 
38 0  hex  61 70 149 140 60 69 148 139 
39 0  hex  130 149 110 100 129 148 109 99 
40 0  hex  149 130 120 140 148 129 119 139 
41 0  hex  81 111 150 91 80 110 149 90 
42 0  hex  91 150 71 51 90 149 70 50 
43 0  hex  62 71 150 141 61 70 149 140 
44 0  hex  131 150 111 101 130 149 110 100 
45 0  hex  150 131 121 141 149 130 120 140 
46 0  hex  72 102 151 82 81 111 150 91 
47 0  hex  82 151 53 42 91 150 71 51 
48 0  hex  52 53 151 132 62 71 150 141 
49 0  hex  122 151 102 92 131 150 111 101 
50 0  hex  151 122 112 132 150 131 121 141 
1 1 quad 93 103 37 34
2 1 quad 94 104 103 93
3 1 quad 95 105 104 94
4 1 quad 96 106 105 95
5 1 quad 97 107 106 96
6 1 quad 98 108 107 97
7 1 quad 99 109 108 98
8 1 quad 100 110 109 99
9 1 quad 101 111 110 100
10 1 quad 92 102 111 101
11 1 quad 103 73 36 37
12 1 quad 104 74 73 103
13 1 quad 105 75 74 104
14 1 quad 106 76 75 105
15 1 quad 107 77 76 106
16 1 quad 108 78 77 107
17 1 quad 109 79 78 108
18 1 quad 110 80 79 109
19 1 quad 111 81 80 110
20 1 quad 102 72 81 111
21 1 quad 73 83 39 36
22 1 quad 74 84 83 73
23 1 quad 75 85 84 74
24 1 quad 76 86 85 75
25 1 quad 77 87 86 76
26 1 quad 78 88 87 77
27 1 quad 79 89 88 78
28 1 quad 80 90 89 79
29 1 quad 81 91 90 80
30 1 quad 72 82 91 81
31 1 quad 83 43 38 39
32 1 quad 84 44 43 83
33 1 quad 85 45 44 84
34 1 quad 86 46 45 85
35 1 quad 87 47 46 86
36 1 quad 88 48 47 87
37 1 quad 89 49 48 88
38 1 quad 90 50 49 89
39 1 quad 91 51 50 90
40 1 quad 82 42 51 91
41 1 quad 43 63 40 38
42 1 quad 44 64 63 43
43 1 quad 45 65 64 44
44 1 quad 46 66 65 45
45 1 quad 47 67 66 46
46 1 quad 48 68 67 47
47 1 quad 49 69 68 48
48 1 quad 50 70 69 49
49 1 quad 51 71 70 50
50 1 quad 42 53 71 51
51 1 quad 63 54 31 40
52 1 quad 64 55 54 63
53 1 quad 65 56 55 64
54 1 quad 66 57 56 65
55 1 quad 67 58 57 66
56 1 quad 68 59 58 67
57 1 quad 69 60 59 68
58 1 quad 70 61 60 69
59 1 quad 71 62 61 70
60 1 quad 53 52 62 71
61 1 quad 54 133 33 31
62 1 quad 55 134 133 54
63 1 quad 56 135 134 55
64 1 quad 57 136 135 56
65 1 quad 58 137 136 57
66 1 quad 59 138 137 58
67 1 quad 60 139 138 59
68 1 quad 61 140 139 60
69 1 quad 62 141 140 61
70 1 quad 52 132 141 62
71 1 quad 133 113 32 33
72 1 quad 134 114 113 133
73 1 quad 135 115 114 134
74 1 quad 136 116 115 135
75 1 quad 137 117 116 136
76 1 quad 138 118 117 137
77 1 quad 139 119 118 138
78 1 quad 140 120 119 139
79 1 quad 141 121 120 140
80 1 quad 132 112 121 141
81 1 quad 113 123 35 32
82 1 quad 114 124 123 113
83 1 quad 115 125 124 114
84 1 quad 116 126 125 115
85 1 quad 117 127 126 116
86 1 quad 118 128 127 117
87 1 quad 119 129 128 118
88 1 quad 120 130 129 119
89 1 quad 121 131 130 120
90 1 quad 112 122 131 121
91 1 quad 123 93 34 35
92 1 quad 124 94 93 123
93 1 quad 125 95 94 124
94 1 quad 126 96 95 125
95 1 quad 127 97 96 126
96 1 quad 128 98 97 127
97 1 quad 129 99 98 128
98 1 quad 130 100 99 129
99 1 quad 131 101 100 130
100 1 quad 122 92 101 131
101 2 quad 72 102 151 82
102 2 quad 82 151 53 42
103 2 quad 52 53 151 132
104 2 quad 122 151 102 92
105 2 quad 151 122 112 132
106 3 quad 39 41 37 36
107 3 quad 38 40 41 39
108 3 quad 33 41 40 31
109 3 quad 34 37 41 35
110 3 quad 33 32 35 41
